{
    "customerID": "2002",
    "deviceID": "MP314159",
    "deviceInputs": [
        "N001",
        "N002",
        "N003",
        "N004",
        "N005",
        "N006",
        "N007",
        "N008",
        "N009",
        "N010",
        "N011",
        "N012",
        "N013",
        "N014",
        "N015",
        "N016",
        "N017",
        "N018",
        "N019",
        "N020",
        "N021",
        "N022",
        "N023",
        "N024",
        "N025",
        "N026",
        "N027",
        "N028",
        "N029",
        "N030",
        "N031",
        "N032",
        "N033",
        "N034",
        "N035",
        "N036",
        "N037",
        "N038",
        "N039",
        "N040",
        "N041",
        "N042",
        "N043",
        "N044",
        "N045",
        "N046",
        "N047",
        "N048",
        "N049",
        "N050",
        "N051",
        "N052",
        "N053",
        "N054",
        "N055",
        "N056",
        "T1",
        "T2",
        "T3",
        "T4",
        "T5"
    ],
    "deviceName": "_Testing",
    "diagnosticFields": [
        "batteryVoltage",
        "batteryCurrent",
        "panelVoltage",
        "referenceVoltage",
        "boardTemp",
        "modemTemp",
        "stackDepth",
        "TTC",
        "modemSignal",
        "restarts",
        "imei",
        "sim",
        "firmwareMain",
        "firmwareMez",
        "hardwareRev",
        "memoryFault",
        "memoryPointer"
    ],
    "labMode": {
        "labMode": true,
        "experimentName": "Default_Experiment",
        "schedules": [
            "schedule1",
            "schedule5"
        ],
        "modes": {
            "cloud": true,
            "network": true,
            "interactive": true
        },
        "sampling": {
            "mode": "continuous",
            "oversampling": "raw"
        },
        "deviceBus": "i2c",
        "aux_boards": []
    },
    "id": "uxF4TYc",
    "lastModified": "2021-03-03 23:34:34+00:00",
    "location": {
        "address": {
            "@type": "PostalAddress",
            "addressLocality": "Arizona",
            "addressRegion": "AZ",
            "postalCode": "85283",
            "streetAddress": "6100 S. Maple Avenue",
            "streetAddress2": "Suite 114"
        },
        "altitude": 1000,
        "lattitude": 33.333,
        "longitude": -111.111,
        "timezone": "America/Phoenix"
    },
    "model": "B176",
    "network": {
        "network1": {
            "cellular": {
                "adapter": "xbee_lte_cat1m",
                "apn": "vzwinternet",
                "connection": "continuous",
                "sim": "SIM"
            }
        },
        "network2": {
            "cellular": {
                "adapter": "nrf9160",
                "apn": "hologram",
                "connection": "backup",
                "sim": "eSIM"
            }
        },
        "network3": {
            "WiFi": {
                "adapter": "xbee_wifi_n",
                "apn": "burge_eero",
                "connection": "continuous",
                "encryption": "WPA",
                "key": "WPA_Password"
            }
        },
        "network4": {
            "WiFi": {
                "adapter": "pine_nut_bl602",
                "apn": "MiProbe WiFi",
                "connection": "continuous",
                "encryption": "Pre-shared Key",
                "key": "shared_key"
            }
        },
        "timeout": 600
    },
    "schedules": {
        "schedule1": {
            "batchQueue": 1,
            "days": "MoTuWeThFrSaSu",
            "outputs": {},
            "interval": 90,
            "name": "data",
            "startTime": "default",
            "inputs": {
                "N001": true,
                "N002": true,
                "N003": true,
                "N004": true,
                "N005": true,
                "N006": true,
                "N007": true,
                "N008": true,
                "N009": true,
                "N010": true,
                "N011": true,
                "N012": true,
                "N013": true,
                "N014": true,
                "N015": true,
                "N016": true,
                "N017": true,
                "N018": true,
                "N019": true,
                "N020": true,
                "N021": true,
                "N022": true,
                "N023": true,
                "N024": true,
                "N025": true,
                "N026": true,
                "N027": true,
                "N028": true,
                "N029": true,
                "N030": true,
                "N031": true,
                "N032": true,
                "N033": true,
                "N034": true,
                "N035": true,
                "N036": true,
                "N037": true,
                "N038": true,
                "N039": true,
                "N040": true,
                "N041": true,
                "N042": true,
                "N043": true,
                "N044": true,
                "N045": true,
                "N046": true,
                "N047": true,
                "N048": true,
                "N049": true,
                "N050": true,
                "N051": true,
                "N052": true,
                "N053": true,
                "N054": true,
                "N055": true,
                "N056": true,
                "T1": true,
                "T2": true,
                "T3": true,
                "T4": true,
                "T5": true
            }
        },
        "schedule5": {
            "batchQueue": 1,
            "days": "SuMoTuWeThFrSa",
            "inputs": {
                "boardTemp": false,
                "firmwareMain": false,
                "hardwareRev": false
            },
            "outputs": {},
            "interval": 600,
            "name": "diagnostics",
            "startTime": "00:05:00"
        },
        "schedule8": {
            "batchQueue": 1,
            "days": "SuMoTuWeThFrSa",
            "inputs": {},
            "outputs": {
                "RecircPump": true,
                "Valve1": true,
                "Valve2": true
            },
            "interval": 60,
            "name": "control_relays",
            "startTime": "00:05:00"
        }
    },
    "sensorNames": {
        "N001": "Probe01",
        "N002": "Probe02",
        "N003": "Probe03",
        "N004": "Probe04",
        "N005": "Probe05",
        "N006": "Probe06",
        "N007": "Probe07",
        "N008": "Probe08",
        "N009": "Probe09",
        "N010": "Probe10",
        "N011": "Probe11",
        "N012": "Probe12",
        "N013": "Probe13",
        "N014": "Probe14",
        "N015": "Probe15",
        "N016": "Probe16",
        "N017": "Probe17",
        "N018": "Probe18",
        "N019": "Probe19",
        "N020": "Probe20",
        "N021": "Probe21",
        "N022": "Probe22",
        "N023": "Probe23",
        "N024": "Probe24",
        "N025": "Probe25",
        "N026": "Probe26",
        "N027": "Probe27",
        "N028": "Probe28",
        "N029": "Probe29",
        "N030": "Probe30",
        "N031": "Probe31",
        "N032": "Probe32",
        "N033": "Probe33",
        "N034": "Probe34",
        "N035": "Probe35",
        "N036": "Probe36",
        "N037": "Probe37",
        "N038": "Probe38",
        "N039": "Probe39",
        "N040": "Probe40",
        "N041": "Probe41",
        "N042": "Probe42",
        "N043": "Probe43",
        "N044": "Probe44",
        "N045": "Probe45",
        "N046": "Probe46",
        "N047": "Probe47",
        "N048": "Probe48",
        "N049": "Probe49",
        "N050": "Probe50",
        "N051": "Probe51",
        "N052": "Probe52",
        "N053": "Probe53",
        "N054": "Probe54",
        "N055": "Probe55",
        "N056": "Probe56",
        "T1": "Temp01",
        "T2": "Temp02",
        "T3": "Temp03",
        "T4": "Temp04",
        "T5": "Temp05"
    },
    "sensorConfig": {
        "N001": "mV",
        "N002": "mV",
        "N003": "mV",
        "N004": "mV",
        "N005": "mV",
        "N006": "mV",
        "N007": "mV",
        "N008": "mV",
        "N009": "mV",
        "N010": "mV",
        "N011": "mV",
        "N012": "mV",
        "N013": "mV",
        "N014": "mV",
        "N015": "mV",
        "N016": "mV",
        "N017": "mV",
        "N018": "mV",
        "N019": "mV",
        "N020": "mV",
        "N021": "mV",
        "N022": "mV",
        "N023": "mV",
        "N024": "mV",
        "N025": "mV",
        "N026": "mV",
        "N027": "mV",
        "N028": "mV",
        "N029": "mV",
        "N030": "mV",
        "N031": "mV",
        "N032": "mV",
        "N033": "mV",
        "N034": "mV",
        "N035": "mV",
        "N036": "mV",
        "N037": "mV",
        "N038": "mV",
        "N039": "mV",
        "N040": "mV",
        "N041": "mV",
        "N042": "mV",
        "N043": "mV",
        "N044": "mV",
        "N045": "mV",
        "N046": "mV",
        "N047": "mV",
        "N048": "mV",
        "N049": "mV",
        "N050": "mV",
        "N051": "mV",
        "N052": "mV",
        "N053": "mV",
        "N054": "mV",
        "N055": "mV",
        "N056": "mV",
        "T1": "C",
        "T2": "C",
        "T3": "C",
        "T4": "C",
        "T5": "C"
    }
}